%YAML 1.1
%TAG !u! tag:unity3d.com,2011:
--- !u!114 &11400000
MonoBehaviour:
  m_ObjectHideFlags: 0
  m_CorrespondingSourceObject: {fileID: 0}
  m_PrefabInstance: {fileID: 0}
  m_PrefabAsset: {fileID: 0}
  m_GameObject: {fileID: 0}
  m_Enabled: 1
  m_EditorHideFlags: 0
  m_Script: {fileID: 11500000, guid: 7d6bebe06f29c574ea2708e32002f587, type: 3}
  m_Name: Lights
  m_EditorClassIdentifier: 
  _shipPower: {fileID: 11400000, guid: aed9a4a037ce1e441be85625428e8a88, type: 2}
  _powerConsumption: 2
  _conditionEvents:
  - condition: {fileID: 11400000, guid: 1d737019da4536847b497b631b22b0fc, type: 2}
    event: {fileID: 11400000, guid: 7801cdb03299fef41b89ed0c2800082c, type: 2}
    systemPower: 0
    fireOnce: 0
  - condition: {fileID: 11400000, guid: cb06865cf2700a344825038535e0b3f0, type: 2}
    event: {fileID: 11400000, guid: 596a6a91b2c85f743a266a7565e12ef1, type: 2}
    systemPower: 1
    fireOnce: 0
