%YAML 1.1
%TAG !u! tag:unity3d.com,2011:
--- !u!114 &11400000
MonoBehaviour:
  m_ObjectHideFlags: 0
  m_CorrespondingSourceObject: {fileID: 0}
  m_PrefabInstance: {fileID: 0}
  m_PrefabAsset: {fileID: 0}
  m_GameObject: {fileID: 0}
  m_Enabled: 1
  m_EditorHideFlags: 0
  m_Script: {fileID: 11500000, guid: fda54821c95b60e40bf55a19aa645e2e, type: 3}
  m_Name: Interactable Highlight
  m_EditorClassIdentifier: 
  _colour: {r: 0, g: 0.27483788, b: 0.31132078, a: 1}
  _intensity: 0.5
  _speed: 2
